age.women,age.sdr2,age.sdr1,risk
20,29,29,0.0084345
21,29,29,0.0090378
22,29,29,0.0093038
23,29,29,0.0093327
24,29,29,0.0093751
25,29,29,0.0100198
26,29,29,0.0116751
27,29,29,0.0138561
28,29,29,0.0161972
29,29,29,0.0185359
30,29,29,0.0208676
31,29,29,0.0232769
32,29,29,0.0258797
33,29,29,0.0287855
34,29,29,0.032077
35,29,29,0.0358225
36,29,29,0.0399044
37,29,29,0.0441744
38,29,29,0.0485983
39,29,29,0.0531993
40,29,29,0.0580209
41,29,29,0.0631057
42,29,29,0.068483
43,29,29,0.0741634
44,29,29,0.0801359
45,29,29,0.0862738
46,29,29,0.0924335
47,29,29,0.0986621
48,29,29,0.1049849
49,29,29,0.1114174
50,29,29,0.1179675
51,29,29,0.1246374
52,29,29,0.1314253
53,29,29,0.1383271
54,29,29,0.1453389
55,29,29,0.1524435
56,29,29,0.1595318
57,29,29,0.1665373
58,29,29,0.1734452
59,29,29,0.1802495
60,29,29,0.1869537
61,29,29,0.1935674
62,29,29,0.2000992
63,29,29,0.2065417
64,29,29,0.2128468
65,29,29,0.218886
66,29,29,0.2245558
67,29,29,0.2298891
68,29,29,0.2349331
69,29,29,0.2397554
70,29,29,0.2444251
71,29,29,0.248976
72,29,29,0.2533517
73,29,29,0.257339
74,29,29,0.2605259
75,29,29,0.2623868
76,29,29,0.263292
77,29,29,0.2637824
78,29,29,0.2639148
79,29,29,0.2640204
20,39,29,0.0073221
21,39,29,0.0078984
22,39,29,0.0083441
23,39,29,0.008564
24,39,29,0.0087318
25,39,29,0.0090856
26,39,29,0.0103226
27,39,29,0.0124258
28,39,29,0.0148774
29,39,29,0.0173879
30,39,29,0.0198738
31,39,29,0.0223817
32,39,29,0.025017
33,39,29,0.0278947
34,39,29,0.03111
35,39,29,0.0347254
36,39,29,0.038731
37,39,29,0.0429578
38,39,29,0.0473233
39,39,29,0.051831
40,39,29,0.0565213
41,39,29,0.0614416
42,39,29,0.0666297
43,39,29,0.0721045
44,39,29,0.0778606
45,39,29,0.0838718
46,39,29,0.0899733
47,39,29,0.0960804
48,39,29,0.1022347
49,39,29,0.108467
50,39,29,0.114799
51,39,29,0.1212456
52,39,29,0.1278173
53,39,29,0.1345221
54,39,29,0.1413679
55,39,29,0.1482947
56,39,29,0.1551683
57,39,29,0.1619523
58,39,29,0.1686422
59,39,29,0.175241
60,39,29,0.1817602
61,39,29,0.1882152
62,39,29,0.1946143
63,39,29,0.2009386
64,39,29,0.2071079
65,39,29,0.2129813
66,39,29,0.2185362
67,39,29,0.2238062
68,39,29,0.2288513
69,39,29,0.2337455
70,39,29,0.2385484
71,39,29,0.2432571
72,39,29,0.2477378
73,39,29,0.2516519
74,39,29,0.254436
75,39,29,0.2560304
76,39,29,0.2570855
77,39,29,0.2577567
78,39,29,0.2577692
79,39,29,0.2581185
20,49,29,0.0073511
21,49,29,0.0079633
22,49,29,0.0084485
23,49,29,0.0086764
24,49,29,0.0088055
25,49,29,0.0090716
26,49,29,0.0100031
27,49,29,0.0118698
28,49,29,0.0141353
29,49,29,0.0164869
30,49,29,0.0188222
31,49,29,0.0211749
32,49,29,0.0236431
33,49,29,0.0263381
34,49,29,0.0293541
35,49,29,0.0327544
36,49,29,0.0365427
37,49,29,0.0405598
38,49,29,0.0447105
39,49,29,0.0489919
40,49,29,0.0534425
41,49,29,0.0581102
42,49,29,0.0630343
43,49,29,0.0682364
44,49,29,0.0737126
45,49,29,0.0794435
46,49,29,0.0853181
47,49,29,0.0911899
48,49,29,0.0971026
49,49,29,0.1030886
50,49,29,0.1091712
51,49,29,0.1153667
52,49,29,0.1216866
53,49,29,0.1281396
54,49,29,0.1347342
55,49,29,0.1413833
56,49,29,0.1479931
57,49,29,0.1545164
58,49,29,0.1609524
59,49,29,0.1673065
60,49,29,0.1735914
61,49,29,0.1798223
62,49,29,0.1860062
63,49,29,0.1921197
64,49,29,0.1980745
65,49,29,0.2037384
66,49,29,0.2090993
67,49,29,0.2141909
68,49,29,0.2190723
69,49,29,0.2238132
70,49,29,0.2284657
71,49,29,0.2330142
72,49,29,0.2373065
73,49,29,0.2409814
74,49,29,0.2434581
75,49,29,0.2449642
76,49,29,0.2459809
77,49,29,0.2466558
78,49,29,0.2466694
79,49,29,0.2470397
20,59,29,0.0065426
21,59,29,0.0069842
22,59,29,0.0074682
23,59,29,0.0077668
24,59,29,0.0079758
25,59,29,0.0082944
26,59,29,0.0089704
27,59,29,0.010708
28,59,29,0.0129084
29,59,29,0.0152043
30,59,29,0.017458
31,59,29,0.019685
32,59,29,0.021977
33,59,29,0.024447
34,59,29,0.0271948
35,59,29,0.0302913
36,59,29,0.0337684
37,59,29,0.0374838
38,59,29,0.0413279
39,59,29,0.045291
40,59,29,0.0494087
41,59,29,0.0537287
42,59,29,0.0582917
43,59,29,0.0631205
44,59,29,0.0682119
45,59,29,0.0735527
46,59,29,0.0791055
47,59,29,0.0846287
48,59,29,0.0901731
49,59,29,0.0957778
50,59,29,0.1014723
51,59,29,0.1072789
52,59,29,0.1132144
53,59,29,0.1192929
54,59,29,0.1255277
55,59,29,0.1317906
56,59,29,0.1380412
57,59,29,0.1442102
58,59,29,0.1503008
59,59,29,0.15632
60,59,29,0.1622806
61,59,29,0.168197
62,59,29,0.1740737
63,59,29,0.1798832
64,59,29,0.1855304
65,59,29,0.1908998
66,59,29,0.1960011
67,59,29,0.2008753
68,59,29,0.205586
69,59,29,0.2102044
70,59,29,0.2147759
71,59,29,0.2192669
72,59,29,0.2234902
73,59,29,0.2270317
74,59,29,0.2292496
75,59,29,0.2308075
76,59,29,0.2319045
77,59,29,0.2323339
78,59,29,0.232658
79,59,29,0.232994
20,69,29,0.005679
21,69,29,0.006104
22,69,29,0.0065104
23,69,29,0.0067428
24,69,29,0.0069071
25,69,29,0.0071865
26,69,29,0.0079281
27,69,29,0.0095292
28,69,29,0.0114937
29,69,29,0.0135257
30,69,29,0.0155219
31,69,29,0.0175056
32,69,29,0.0195615
33,69,29,0.0217893
34,69,29,0.0242754
35,69,29,0.02708
36,69,29,0.0302183
37,69,29,0.0335558
38,69,29,0.037003
39,69,29,0.0405566
40,69,29,0.0442518
41,69,29,0.0481339
42,69,29,0.0522409
43,69,29,0.0565945
44,69,29,0.0611935
45,69,29,0.0660226
46,69,29,0.0710114
47,69,29,0.0759882
48,69,29,0.0809982
49,69,29,0.0860757
50,69,29,0.0912464
51,69,29,0.0965289
52,69,29,0.1019371
53,69,29,0.1074819
54,69,29,0.1131732
55,69,29,0.1189185
56,69,29,0.1246549
57,69,29,0.1303291
58,69,29,0.1359433
59,69,29,0.1415026
60,69,29,0.147017
61,69,29,0.1524982
62,69,29,0.1579495
63,69,29,0.163348
64,69,29,0.1686133
65,69,29,0.1736374
66,69,29,0.1784167
67,69,29,0.1829811
68,69,29,0.1873814
69,69,29,0.1916759
70,69,29,0.195904
71,69,29,0.2000411
72,69,29,0.2039363
73,69,29,0.2072496
74,69,29,0.2094457
75,69,29,0.2108872
76,69,29,0.2118826
77,69,29,0.2123219
78,69,29,0.2125489
79,69,29,0.2128495
20,79,29,0.005052
21,79,29,0.0052053
22,79,29,0.0056826
23,79,29,0.0060508
24,79,29,0.006276
25,79,29,0.0064941
26,79,29,0.0068732
27,79,29,0.007613
28,79,29,0.0091531
29,79,29,0.0109816
30,79,29,0.0128435
31,79,29,0.0146741
32,79,29,0.0165168
33,79,29,0.0184589
34,79,29,0.0205909
35,79,29,0.0229844
36,79,29,0.0256831
37,79,29,0.0286873
38,79,29,0.0317948
39,79,29,0.034962
40,79,29,0.0382122
41,79,29,0.0415933
42,79,29,0.045154
43,79,29,0.0489284
44,79,29,0.0529273
45,79,29,0.0571479
46,79,29,0.0615791
47,79,29,0.0661824
48,79,29,0.0707459
49,79,29,0.0753246
50,79,29,0.0799625
51,79,29,0.0846955
52,79,29,0.0895529
53,79,29,0.0945602
54,79,29,0.0996277
55,79,29,0.1047301
56,79,29,0.109849
57,79,29,0.1149609
58,79,29,0.1200159
59,79,29,0.1250389
60,79,29,0.1300511
61,79,29,0.1350686
62,79,29,0.1400889
63,79,29,0.1450659
64,79,29,0.1498501
65,79,29,0.1544288
66,79,29,0.158822
67,79,29,0.1630714
68,79,29,0.167232
69,79,29,0.1713504
70,79,29,0.175426
71,79,29,0.1793482
72,79,29,0.1828178
73,79,29,0.185282
74,79,29,0.1871434
75,79,29,0.1885633
76,79,29,0.1893508
77,79,29,0.1896533
78,79,29,0.1904365
79,79,29,0.1906391
20,39,39,0.0073511
21,39,39,0.0079633
22,39,39,0.0084485
23,39,39,0.0086764
24,39,39,0.0088055
25,39,39,0.0090716
26,39,39,0.0100031
27,39,39,0.0118698
28,39,39,0.0141353
29,39,39,0.0164869
30,39,39,0.0188222
31,39,39,0.0211749
32,39,39,0.0236431
33,39,39,0.0263381
34,39,39,0.0293541
35,39,39,0.0327544
36,39,39,0.0365427
37,39,39,0.0405598
38,39,39,0.0447105
39,39,39,0.0489919
40,39,39,0.0534425
41,39,39,0.0581102
42,39,39,0.0630343
43,39,39,0.0682364
44,39,39,0.0737126
45,39,39,0.0794435
46,39,39,0.0853181
47,39,39,0.0911899
48,39,39,0.0971026
49,39,39,0.1030886
50,39,39,0.1091712
51,39,39,0.1153667
52,39,39,0.1216866
53,39,39,0.1281396
54,39,39,0.1347342
55,39,39,0.1413833
56,39,39,0.1479931
57,39,39,0.1545164
58,39,39,0.1609524
59,39,39,0.1673065
60,39,39,0.1735914
61,39,39,0.1798223
62,39,39,0.1860062
63,39,39,0.1921197
64,39,39,0.1980745
65,39,39,0.2037384
66,39,39,0.2090993
67,39,39,0.2141909
68,39,39,0.2190723
69,39,39,0.2238132
70,39,39,0.2284657
71,39,39,0.2330142
72,39,39,0.2373065
73,39,39,0.2409814
74,39,39,0.2434581
75,39,39,0.2449642
76,39,39,0.2459809
77,39,39,0.2466558
78,39,39,0.2466694
79,39,39,0.2470397
20,49,39,0.00667
21,49,39,0.0071611
22,49,39,0.0073846
23,49,39,0.0074205
24,49,39,0.0074782
25,49,39,0.0080621
26,49,39,0.0095197
27,49,39,0.0114269
28,49,39,0.0134646
29,49,39,0.0154912
30,49,39,0.0175031
31,49,39,0.0195743
32,49,39,0.0218065
33,49,39,0.0242959
34,49,39,0.0271157
35,49,39,0.0303267
36,49,39,0.0338244
37,49,39,0.0374775
38,49,39,0.0412574
39,49,39,0.0451871
40,49,39,0.0493082
41,49,39,0.0536612
42,49,39,0.0582749
43,49,39,0.0631609
44,49,39,0.0683116
45,49,39,0.0736134
46,49,39,0.0789361
47,49,39,0.0843237
48,49,39,0.0898014
49,49,39,0.0953855
50,49,39,0.101085
51,49,39,0.1069036
52,49,39,0.1128409
53,49,39,0.1188942
54,49,39,0.1250604
55,49,39,0.1313218
56,49,39,0.1375815
57,49,39,0.1437837
58,49,39,0.1499162
59,49,39,0.1559737
60,49,39,0.1619582
61,49,39,0.1678771
62,49,39,0.1737362
63,49,39,0.1795276
64,49,39,0.185208
65,49,39,0.1906658
66,49,39,0.1958096
67,49,39,0.2006651
68,49,39,0.2052694
69,49,39,0.2096774
70,49,39,0.2139443
71,49,39,0.2180949
72,49,39,0.2220754
73,49,39,0.2256966
74,49,39,0.2285973
75,49,39,0.2303186
76,49,39,0.2311782
77,49,39,0.2316433
78,49,39,0.2316989
79,49,39,0.2318485
20,59,39,0.0061861
21,59,39,0.0062799
22,59,39,0.0063936
23,59,39,0.0064207
24,59,39,0.0065157
25,59,39,0.0075055
26,59,39,0.0089768
27,59,39,0.0106273
28,59,39,0.0122855
29,59,39,0.0139114
30,59,39,0.0155512
31,59,39,0.0172912
32,59,39,0.0192235
33,59,39,0.021426
34,59,39,0.0240094
35,59,39,0.0269152
36,59,39,0.0299932
37,59,39,0.0331959
38,59,39,0.036532
39,59,39,0.0400346
40,59,39,0.0437415
41,59,39,0.0476836
42,59,39,0.0518791
43,59,39,0.0563311
44,59,39,0.0609727
45,59,39,0.0657083
46,59,39,0.070534
47,59,39,0.0754635
48,59,39,0.0805111
49,59,39,0.0856734
50,59,39,0.0909421
51,59,39,0.0963061
52,59,39,0.1017521
53,59,39,0.1072658
54,59,39,0.1128309
55,59,39,0.1184408
56,59,39,0.1240926
57,59,39,0.1297194
58,59,39,0.1352664
59,59,39,0.1407174
60,59,39,0.1460627
61,59,39,0.1512975
62,59,39,0.1564195
63,59,39,0.1614219
64,59,39,0.1662813
65,59,39,0.1709386
66,59,39,0.1752701
67,59,39,0.179216
68,59,39,0.1828323
69,59,39,0.1861585
70,59,39,0.189247
71,59,39,0.1921453
72,59,39,0.1948655
73,59,39,0.1973433
74,59,39,0.1993987
75,59,39,0.2007427
76,59,39,0.2010299
77,59,39,0.2010668
78,59,39,0.2011422
79,59,39,0.20126
20,69,39,0.0048901
21,69,39,0.0052463
22,69,39,0.0055989
23,69,39,0.0058035
24,69,39,0.0059437
25,69,39,0.006173
26,69,39,0.0067467
27,69,39,0.0080883
28,69,39,0.0097502
29,69,39,0.0114634
30,69,39,0.0131323
31,69,39,0.0147759
32,69,39,0.0164696
33,69,39,0.0183034
34,69,39,0.0203561
35,69,39,0.0226834
36,69,39,0.0253046
37,69,39,0.0280997
38,69,39,0.0309852
39,69,39,0.0339589
40,69,39,0.0370555
41,69,39,0.0403194
42,69,39,0.0437884
43,69,39,0.0474857
44,69,39,0.0514124
45,69,39,0.0555564
46,69,39,0.0598682
47,69,39,0.0641722
48,69,39,0.0685131
49,69,39,0.0729255
50,69,39,0.0774351
51,69,39,0.082061
52,69,39,0.0868168
53,69,39,0.0917128
54,69,39,0.0967577
55,69,39,0.1018657
56,69,39,0.1069895
57,69,39,0.1120742
58,69,39,0.117124
59,69,39,0.122143
60,69,39,0.1271388
61,69,39,0.1321193
62,69,39,0.137085
63,69,39,0.1420126
64,69,39,0.1468296
65,69,39,0.1514431
66,69,39,0.1558502
67,69,39,0.1600747
68,69,39,0.1641572
69,69,39,0.1681442
70,69,39,0.172064
71,69,39,0.175887
72,69,39,0.1794703
73,69,39,0.1825026
74,69,39,0.1845017
75,69,39,0.185863
76,69,39,0.1868119
77,69,39,0.1871437
78,69,39,0.1874447
79,69,39,0.1877081
20,79,39,0.0043392
21,79,39,0.004372
22,79,39,0.0047422
23,79,39,0.0050578
24,79,39,0.0052649
25,79,39,0.0054599
26,79,39,0.0057735
27,79,39,0.0063141
28,79,39,0.0075294
29,79,39,0.0090146
30,79,39,0.01052
31,79,39,0.0119751
32,79,39,0.013413
33,79,39,0.0149113
34,79,39,0.0165536
35,79,39,0.018408
36,79,39,0.0205187
37,79,39,0.0229044
38,79,39,0.025391
39,79,39,0.0279237
40,79,39,0.0305235
41,79,39,0.0332364
42,79,39,0.0361094
43,79,39,0.0391761
44,79,39,0.0424483
45,79,39,0.0459273
46,79,39,0.0496064
47,79,39,0.0534728
48,79,39,0.0573233
49,79,39,0.0611885
50,79,39,0.0651136
51,79,39,0.0691353
52,79,39,0.0732834
53,79,39,0.0775739
54,79,39,0.0819329
55,79,39,0.0863476
56,79,39,0.0908028
57,79,39,0.0952824
58,79,39,0.0997326
59,79,39,0.1041709
60,79,39,0.1086142
61,79,39,0.1130733
62,79,39,0.1175425
63,79,39,0.1219715
64,79,39,0.1262414
65,79,39,0.1303509
66,79,39,0.134318
67,79,39,0.1381784
68,79,39,0.1419777
69,79,39,0.1457505
70,79,39,0.1494845
71,79,39,0.1530632
72,79,39,0.1561941
73,79,39,0.158435
74,79,39,0.1602028
75,79,39,0.1615755
76,79,39,0.1620167
77,79,39,0.1626348
78,79,39,0.1633659
79,79,39,0.1634623
20,49,49,0.0057805
21,49,49,0.006108
22,49,49,0.0066099
23,49,49,0.0069464
24,49,49,0.0071465
25,49,49,0.0073808
26,49,49,0.0078325
27,49,49,0.0089771
28,49,49,0.0107837
29,49,49,0.0128058
30,49,49,0.0148389
31,49,49,0.0168512
32,49,49,0.0189052
33,49,49,0.0210973
34,49,49,0.0235206
35,49,49,0.0262452
36,49,49,0.0293106
37,49,49,0.0326491
38,49,49,0.0360988
39,49,49,0.0396288
40,49,49,0.0432681
41,49,49,0.047066
42,49,49,0.0510696
43,49,49,0.0553102
44,49,49,0.0597954
45,49,49,0.064518
46,49,49,0.0694629
47,49,49,0.0744927
48,49,49,0.0795095
49,49,49,0.0845626
50,49,49,0.0896909
51,49,49,0.0949249
52,49,49,0.1002895
53,49,49,0.1058055
54,49,49,0.1114246
55,49,49,0.1170759
56,49,49,0.1227362
57,49,49,0.1283567
58,49,49,0.1339164
59,49,49,0.139433
60,49,49,0.144925
61,49,49,0.1504082
62,49,49,0.1558827
63,49,49,0.1613081
64,49,49,0.1665574
65,49,49,0.1715696
66,49,49,0.1763597
67,49,49,0.1809668
68,49,49,0.1854471
69,49,49,0.1898546
70,49,49,0.1942054
71,49,49,0.1984192
72,49,49,0.202244
73,49,49,0.2051886
74,49,49,0.2071823
75,49,49,0.208661
76,49,49,0.209755
77,49,49,0.2098476
78,49,49,0.2105357
79,49,49,0.2108219
20,59,49,0.0052868
21,59,49,0.0054713
22,59,49,0.0057358
23,59,49,0.0061838
24,59,49,0.006477
25,59,49,0.006703
26,59,49,0.0070244
27,59,49,0.0075899
28,59,49,0.0086843
29,59,49,0.0103491
30,59,49,0.0121721
31,59,49,0.013994
32,59,49,0.0158109
33,59,49,0.0176924
34,59,49,0.0197277
35,59,49,0.0219949
36,59,49,0.0245469
37,59,49,0.0274073
38,59,49,0.0304925
39,59,49,0.0336027
40,59,49,0.036749
41,59,49,0.0399828
42,59,49,0.0433632
43,59,49,0.0469366
44,59,49,0.0507226
45,59,49,0.0547267
46,59,49,0.0589448
47,59,49,0.0633655
48,59,49,0.0678899
49,59,49,0.0723782
50,59,49,0.0768932
51,59,49,0.0814879
52,59,49,0.0862073
53,59,49,0.0910097
54,59,49,0.0958605
55,59,49,0.1007516
56,59,49,0.105672
57,59,49,0.1106109
58,59,49,0.115542
59,59,49,0.1204541
60,59,49,0.1253836
61,59,49,0.1303516
62,59,49,0.1353499
63,59,49,0.1402327
64,59,49,0.1449317
65,59,49,0.1494525
66,59,49,0.1538235
67,59,49,0.1580919
68,59,49,0.1623107
69,59,49,0.1665081
70,59,49,0.1706352
71,59,49,0.1744873
72,59,49,0.1776081
73,59,49,0.1799985
74,59,49,0.1819039
75,59,49,0.1833959
76,59,49,0.1834267
77,59,49,0.1846506
78,59,49,0.185498
79,59,49,0.185502
20,69,49,0.0045996
21,69,49,0.0047266
22,69,49,0.0052266
23,69,49,0.0056709
24,69,49,0.0057117
25,69,49,0.0059835
26,69,49,0.0062612
27,69,49,0.0066445
28,69,49,0.0072519
29,69,49,0.0081557
30,69,49,0.009555
31,69,49,0.0111135
32,69,49,0.0126608
33,69,49,0.0141942
34,69,49,0.0157844
35,69,49,0.0175185
36,69,49,0.0194697
37,69,49,0.0216844
38,69,49,0.0241796
39,69,49,0.0269445
40,69,49,0.0296962
41,69,49,0.03242
42,69,49,0.0352108
43,69,49,0.0381258
44,69,49,0.041205
45,69,49,0.0444743
46,69,49,0.0479474
47,69,49,0.0516282
48,69,49,0.0555137
49,69,49,0.0595958
50,69,49,0.0636595
51,69,49,0.0677124
52,69,49,0.0717361
53,69,49,0.0757635
54,69,49,0.0798174
55,69,49,0.0839131
56,69,49,0.0880615
57,69,49,0.0922723
58,69,49,0.0965563
59,69,49,0.1009288
60,69,49,0.1053717
61,69,49,0.1098709
62,69,49,0.1142475
63,69,49,0.1184889
64,69,49,0.1226018
65,69,49,0.1266154
66,69,49,0.1305789
67,69,49,0.1345493
68,69,49,0.1385615
69,69,49,0.1425729
70,69,49,0.1463705
71,69,49,0.1495758
72,69,49,0.1523476
73,69,49,0.154719
74,69,49,0.1558051
75,69,49,0.1567629
76,69,49,0.1585466
77,69,49,0.1599623
78,69,49,0.1600209
79,69,49,0.1608151
20,79,49,0.0036643
21,79,49,0.0037801
22,79,49,0.0041821
23,79,49,0.0045353
24,79,49,0.0045391
25,79,49,0.0047863
26,79,49,0.0050156
27,79,49,0.0053361
28,79,49,0.0058415
29,79,49,0.0065877
30,79,49,0.0077519
31,79,49,0.0090213
32,79,49,0.0102701
33,79,49,0.0115038
34,79,49,0.012784
35,79,49,0.0141836
36,79,49,0.015763
37,79,49,0.0175603
38,79,49,0.0195892
39,79,49,0.0218409
40,79,49,0.0240391
41,79,49,0.0262085
42,79,49,0.028435
43,79,49,0.0307713
44,79,49,0.0332553
45,79,49,0.035912
46,79,49,0.0387556
47,79,49,0.0417918
48,79,49,0.0450191
49,79,49,0.0484314
50,79,49,0.0518123
51,79,49,0.0552104
52,79,49,0.0586105
53,79,49,0.0620429
54,79,49,0.0655283
55,79,49,0.06908
56,79,49,0.0727061
57,79,49,0.0764123
58,79,49,0.0802042
59,79,49,0.0840899
60,79,49,0.0880415
61,79,49,0.0920733
62,79,49,0.0960254
63,79,49,0.0998842
64,79,49,0.1036501
65,79,49,0.1073411
66,79,49,0.1109908
67,79,49,0.114639
68,79,49,0.1183093
69,79,49,0.1219653
70,79,49,0.1254387
71,79,49,0.1283763
72,79,49,0.1309196
73,79,49,0.1330945
74,79,49,0.1341737
75,79,49,0.1349632
76,79,49,0.1365849
77,79,49,0.1378994
78,79,49,0.1379193
79,79,49,0.1386433
20,59,59,0.0041583
21,59,59,0.0047392
22,59,59,0.0048584
23,59,59,0.0057674
24,59,59,0.0064748
25,59,59,0.0065727
26,59,59,0.0070115
27,59,59,0.0072516
28,59,59,0.007552
29,59,59,0.0081374
30,59,59,0.0091508
31,59,59,0.0106502
32,59,59,0.0126032
33,59,59,0.0148109
34,59,59,0.0171663
35,59,59,0.0196656
36,59,59,0.0223364
37,59,59,0.0252004
38,59,59,0.028253
39,59,59,0.0314949
40,59,59,0.0349148
41,59,59,0.0384735
42,59,59,0.0419785
43,59,59,0.045215
44,59,59,0.0483068
45,59,59,0.0513539
46,59,59,0.0544371
47,59,59,0.0576228
48,59,59,0.060967
49,59,59,0.0644267
50,59,59,0.0679549
51,59,59,0.0715377
52,59,59,0.075044
53,59,59,0.0783303
54,59,59,0.081528
55,59,59,0.084759
56,59,59,0.0881408
57,59,59,0.0917923
58,59,59,0.0958389
59,59,59,0.1001109
60,59,59,0.1044474
61,59,59,0.1088074
62,59,59,0.1131281
63,59,59,0.1173756
64,59,59,0.1215804
65,59,59,0.1257753
66,59,59,0.1299889
67,59,59,0.1342111
68,59,59,0.1383213
69,59,59,0.1420991
70,59,59,0.1454812
71,59,59,0.1484827
72,59,59,0.1511869
73,59,59,0.1534415
74,59,59,0.1537324
75,59,59,0.1562486
76,59,59,0.1584377
77,59,59,0.1587023
78,59,59,0.1606412
79,59,59,0.1609666
20,69,59,0.0024594
21,69,59,0.0028278
22,69,59,0.00291
23,69,59,0.0035735
24,69,59,0.0042026
25,69,59,0.0042899
26,69,59,0.0046846
27,69,59,0.0048882
28,69,59,0.0051207
29,69,59,0.0055782
30,69,59,0.0063882
31,69,59,0.007605
32,69,59,0.0092126
33,69,59,0.0110467
34,69,59,0.0130052
35,69,59,0.0150807
36,69,59,0.017296
37,69,59,0.0196699
38,69,59,0.0221977
39,69,59,0.0248913
40,69,59,0.0277352
41,69,59,0.0306967
42,69,59,0.033664
43,69,59,0.0363622
44,69,59,0.0389108
45,69,59,0.041407
46,69,59,0.0439301
47,69,59,0.0465452
48,69,59,0.0493075
49,69,59,0.0521664
50,69,59,0.055101
51,69,59,0.0581029
52,69,59,0.0611014
53,69,59,0.0638973
54,69,59,0.0666185
55,69,59,0.0693821
56,69,59,0.0722997
57,69,59,0.0754817
58,69,59,0.0790426
59,69,59,0.0827737
60,69,59,0.0865853
61,69,59,0.0904415
62,69,59,0.094294
63,69,59,0.0980952
64,69,59,0.1018757
65,69,59,0.1056626
66,69,59,0.1094761
67,69,59,0.1132992
68,69,59,0.117014
69,69,59,0.1204339
70,69,59,0.1235138
71,69,59,0.126271
72,69,59,0.1287829
73,69,59,0.1308578
74,69,59,0.1311736
75,69,59,0.1335498
76,69,59,0.1353943
77,69,59,0.1358542
78,69,59,0.1376272
79,69,59,0.1378211
20,79,59,0.0022426
21,79,59,0.0026885
22,79,59,0.0028855
23,79,59,0.0034863
24,79,59,0.0039382
25,79,59,0.0040033
26,79,59,0.0042844
27,79,59,0.0044365
28,79,59,0.0046254
29,79,59,0.0049954
30,79,59,0.0056386
31,79,59,0.0065926
32,79,59,0.0078358
33,79,59,0.0092291
34,79,59,0.0107011
35,79,59,0.0122573
36,79,59,0.0139258
37,79,59,0.0157307
38,79,59,0.0176769
39,79,59,0.0197667
40,79,59,0.0219918
41,79,59,0.0243282
42,79,59,0.0266358
43,79,59,0.0287431
44,79,59,0.0307543
45,79,59,0.0327534
46,79,59,0.0348081
47,79,59,0.0369725
48,79,59,0.0392906
49,79,59,0.0417377
50,79,59,0.0442868
51,79,59,0.0469278
52,79,59,0.0495529
53,79,59,0.05203
54,79,59,0.0544654
55,79,59,0.0569537
56,79,59,0.0595813
57,79,59,0.0624309
58,79,59,0.0655854
59,79,59,0.0689298
60,79,59,0.0723608
61,79,59,0.0758461
62,79,59,0.0793324
63,79,59,0.0827872
64,79,59,0.0862345
65,79,59,0.0896959
66,79,59,0.0931877
67,79,59,0.0966966
68,79,59,0.1001279
69,79,59,0.1033158
70,79,59,0.1062096
71,79,59,0.1088166
72,79,59,0.1111942
73,79,59,0.1131131
74,79,59,0.1134395
75,79,59,0.1156368
76,79,59,0.1173728
77,79,59,0.1177342
78,79,59,0.1193416
79,79,59,0.1195544
20,69,69,0.0018515
21,69,69,0.0018567
22,69,69,0.0021558
23,69,69,0.0024484
24,69,69,0.0024905
25,69,69,0.0026484
26,69,69,0.0028175
27,69,69,0.0030492
28,69,69,0.0034236
29,69,69,0.0039906
30,69,69,0.0048716
31,69,69,0.0058743
32,69,69,0.0068707
33,69,69,0.0078538
34,69,69,0.0088706
35,69,69,0.0099809
36,69,69,0.0112364
37,69,69,0.0126705
38,69,69,0.0142962
39,69,69,0.0161075
40,69,69,0.0179051
41,69,69,0.0196513
42,69,69,0.0214263
43,69,69,0.0232843
44,69,69,0.0252655
45,69,69,0.0273977
46,69,69,0.0296988
47,69,69,0.0321777
48,69,69,0.0348367
49,69,69,0.0376729
50,69,69,0.0405321
51,69,69,0.0433849
52,69,69,0.0462419
53,69,69,0.0491371
54,69,69,0.0520945
55,69,69,0.0551301
56,69,69,0.0582544
57,69,69,0.0614747
58,69,69,0.0647968
59,69,69,0.068228
60,69,69,0.0717473
61,69,69,0.0753221
62,69,69,0.0788481
63,69,69,0.0823135
64,69,69,0.0857177
65,69,69,0.0890729
66,69,69,0.0924029
67,69,69,0.0957342
68,69,69,0.0990752
69,69,69,0.1023779
70,69,69,0.1054733
71,69,69,0.1081318
72,69,69,0.1104441
73,69,69,0.1124365
74,69,69,0.1132219
75,69,69,0.1141649
76,69,69,0.1156762
77,69,69,0.1167671
78,69,69,0.1169143
79,69,69,0.1175506
20,79,69,0.0017513
21,79,69,0.0018267
22,79,69,0.0021192
23,79,69,0.0023695
24,79,69,0.0025222
25,79,69,0.0025338
26,79,69,0.0026497
27,79,69,0.0027922
28,79,69,0.0030303
29,79,69,0.0034105
30,79,69,0.0039856
31,79,69,0.0047269
32,79,69,0.0054638
33,79,69,0.0061679
34,79,69,0.0068776
35,79,69,0.0076521
36,79,69,0.0085462
37,79,69,0.0095986
38,79,69,0.0108284
39,79,69,0.0122349
40,79,69,0.0137403
41,79,69,0.0151676
42,79,69,0.0165972
43,79,69,0.0180909
44,79,69,0.0196957
45,79,69,0.0214456
46,79,69,0.0233635
47,79,69,0.0254626
48,79,69,0.0277483
49,79,69,0.0302197
50,79,69,0.0328227
51,79,69,0.0353655
52,79,69,0.0378968
53,79,69,0.0404601
54,79,69,0.0430873
55,79,69,0.0458006
56,79,69,0.0486152
57,79,69,0.0515412
58,79,69,0.0545861
59,79,69,0.0577568
60,79,69,0.061049
61,79,69,0.0643334
62,79,69,0.0675815
63,79,69,0.0707883
64,79,69,0.0739581
65,79,69,0.0771065
66,79,69,0.0802578
67,79,69,0.0834349
68,79,69,0.0866353
69,79,69,0.0897873
70,79,69,0.0926795
71,79,69,0.0952471
72,79,69,0.0975162
73,79,69,0.0995145
74,79,69,0.099736
75,79,69,0.1012905
76,79,69,0.102866
77,79,69,0.1036175
78,79,69,0.1041328
79,79,69,0.1046804
20,79,79,0.0008187
21,79,79,0.0008584
22,79,79,0.0010363
23,79,79,0.0012764
24,79,79,0.0014687
25,79,79,0.0015199
26,79,79,0.0016368
27,79,79,0.0018365
28,79,79,0.0021203
29,79,79,0.0025229
30,79,79,0.0030922
31,79,79,0.0037887
32,79,79,0.0044684
33,79,79,0.0051093
34,79,79,0.0057465
35,79,79,0.0064331
36,79,79,0.0072178
37,79,79,0.0081356
38,79,79,0.0092041
39,79,79,0.010424
40,79,79,0.0117164
41,79,79,0.0129287
42,79,79,0.0141354
43,79,79,0.0153953
44,79,79,0.016754
45,79,79,0.018245
46,79,79,0.0198918
47,79,79,0.0217092
48,79,79,0.0237046
49,79,79,0.0258798
50,79,79,0.0281763
51,79,79,0.0304265
52,79,79,0.0326766
53,79,79,0.0349695
54,79,79,0.0373364
55,79,79,0.0397991
56,79,79,0.0423719
57,79,79,0.0450635
58,79,79,0.0478794
59,79,79,0.0508234
60,79,79,0.0538846
61,79,79,0.0569566
62,79,79,0.0600126
63,79,79,0.0630476
64,79,79,0.0660633
65,79,79,0.0690706
66,79,79,0.0720876
67,79,79,0.0751303
68,79,79,0.078193
69,79,79,0.0812111
70,79,79,0.0840001
71,79,79,0.0864867
72,79,79,0.0886948
73,79,79,0.090645
74,79,79,0.090903
75,79,79,0.092376
76,79,79,0.0939009
77,79,79,0.0946021
78,79,79,0.0951124
79,79,79,0.0956238
